"Mah" "rQT1" "rQT2" "rQT3" "p.skat" "p.skat.o" "p.mah" "prqt1" "prqt2" "prqt3" "pskat" "pskato"
"0.1" 0.212 0 0 0 0.328 0.345 0.087636646171979 0 0 0 0.123410838884024 0.13409564634477
"0.15" 0.23 0 0 0 0.173 0.189 0.0951342957935464 0 0 0 0.0613766808164396 0.0707363617566872
"0.2" 0.182 0 0 0 0.096 0.1 0.0710190898536404 0 0 0 0.0311891706963828 0.0360366129204422
